%YAML 1.1
%TAG !u! tag:unity3d.com,2011:
--- !u!1001 &1053690277069800297
PrefabInstance:
  m_ObjectHideFlags: 0
  serializedVersion: 2
  m_Modification:
    serializedVersion: 3
    m_TransformParent: {fileID: 0}
    m_Modifications:
    - target: {fileID: -8679921383154817045, guid: 121a05f852a09764a98f4a4b0efcc9ca, type: 3}
      propertyPath: m_LocalPosition.x
      value: 0
      objectReference: {fileID: 0}
    - target: {fileID: -8679921383154817045, guid: 121a05f852a09764a98f4a4b0efcc9ca, type: 3}
      propertyPath: m_LocalPosition.y
      value: 0
      objectReference: {fileID: 0}
    - target: {fileID: -8679921383154817045, guid: 121a05f852a09764a98f4a4b0efcc9ca, type: 3}
      propertyPath: m_LocalPosition.z
      value: 0
      objectReference: {fileID: 0}
    - target: {fileID: -8679921383154817045, guid: 121a05f852a09764a98f4a4b0efcc9ca, type: 3}
      propertyPath: m_LocalRotation.w
      value: 1
      objectReference: {fileID: 0}
    - target: {fileID: -8679921383154817045, guid: 121a05f852a09764a98f4a4b0efcc9ca, type: 3}
      propertyPath: m_LocalRotation.x
      value: 0
      objectReference: {fileID: 0}
    - target: {fileID: -8679921383154817045, guid: 121a05f852a09764a98f4a4b0efcc9ca, type: 3}
      propertyPath: m_LocalRotation.y
      value: 0
      objectReference: {fileID: 0}
    - target: {fileID: -8679921383154817045, guid: 121a05f852a09764a98f4a4b0efcc9ca, type: 3}
      propertyPath: m_LocalRotation.z
      value: 0
      objectReference: {fileID: 0}
    - target: {fileID: -8679921383154817045, guid: 121a05f852a09764a98f4a4b0efcc9ca, type: 3}
      propertyPath: m_LocalEulerAnglesHint.x
      value: 0
      objectReference: {fileID: 0}
    - target: {fileID: -8679921383154817045, guid: 121a05f852a09764a98f4a4b0efcc9ca, type: 3}
      propertyPath: m_LocalEulerAnglesHint.y
      value: 0
      objectReference: {fileID: 0}
    - target: {fileID: -8679921383154817045, guid: 121a05f852a09764a98f4a4b0efcc9ca, type: 3}
      propertyPath: m_LocalEulerAnglesHint.z
      value: 0
      objectReference: {fileID: 0}
    - target: {fileID: -8351792968604737888, guid: 121a05f852a09764a98f4a4b0efcc9ca, type: 3}
      propertyPath: m_StaticEditorFlags
      value: 2147483647
      objectReference: {fileID: 0}
    - target: {fileID: 919132149155446097, guid: 121a05f852a09764a98f4a4b0efcc9ca, type: 3}
      propertyPath: m_Name
      value: wine_barrel_01_2k
      objectReference: {fileID: 0}
    - target: {fileID: 919132149155446097, guid: 121a05f852a09764a98f4a4b0efcc9ca, type: 3}
      propertyPath: m_StaticEditorFlags
      value: 2147483647
      objectReference: {fileID: 0}
    - target: {fileID: 1366554555738444880, guid: 121a05f852a09764a98f4a4b0efcc9ca, type: 3}
      propertyPath: m_StaticEditorFlags
      value: 2147483647
      objectReference: {fileID: 0}
    - target: {fileID: 5652808008904881143, guid: 121a05f852a09764a98f4a4b0efcc9ca, type: 3}
      propertyPath: m_StaticEditorFlags
      value: 2147483647
      objectReference: {fileID: 0}
    - target: {fileID: 5959314023388589825, guid: 121a05f852a09764a98f4a4b0efcc9ca, type: 3}
      propertyPath: m_StaticEditorFlags
      value: 2147483647
      objectReference: {fileID: 0}
    m_RemovedComponents: []
    m_RemovedGameObjects: []
    m_AddedGameObjects: []
    m_AddedComponents:
    - targetCorrespondingSourceObject: {fileID: 919132149155446097, guid: 121a05f852a09764a98f4a4b0efcc9ca, type: 3}
      insertIndex: -1
      addedObject: {fileID: 4210067301505965199}
  m_SourcePrefab: {fileID: 100100000, guid: 121a05f852a09764a98f4a4b0efcc9ca, type: 3}
--- !u!1 &170605071171223096 stripped
GameObject:
  m_CorrespondingSourceObject: {fileID: 919132149155446097, guid: 121a05f852a09764a98f4a4b0efcc9ca, type: 3}
  m_PrefabInstance: {fileID: 1053690277069800297}
  m_PrefabAsset: {fileID: 0}
--- !u!65 &4210067301505965199
BoxCollider:
  m_ObjectHideFlags: 0
  m_CorrespondingSourceObject: {fileID: 0}
  m_PrefabInstance: {fileID: 0}
  m_PrefabAsset: {fileID: 0}
  m_GameObject: {fileID: 170605071171223096}
  m_Material: {fileID: 0}
  m_IncludeLayers:
    serializedVersion: 2
    m_Bits: 0
  m_ExcludeLayers:
    serializedVersion: 2
    m_Bits: 0
  m_LayerOverridePriority: 0
  m_IsTrigger: 0
  m_ProvidesContacts: 0
  m_Enabled: 1
  serializedVersion: 3
  m_Size: {x: 1, y: 0.89323413, z: 0.74742067}
  m_Center: {x: 0, y: 0.4656791, z: 0.018324539}
